{
  "name": "folder",
  "children": [
    {
      "name": "folder-A",
      "children": [
        {
          "name": "file-A1",
          "content": {
            "text": "Lorem ipsum dolor sit amet, consectetur adipiscing elit, sed do eiusmod tempor incididunt ut labore et dolore magna aliqua."
          }
        },
        {
          "name": "file-A2",
          "content": {
            "text": "FILE TWO"
          }
        },
        {
          "name": "folder-AA",
          "children": [
            {
              "name": "folder-AAA",
              "children": [
                {
                  "name": "file-AAA1",
                  "content": {
                    "text": "FILE THREE -- Lorem ipsum dolor sit amet, consectetur adipiscing elit, sed do eiusmod tempor incididunt ut labore et dolore magna aliqua."
                  }
                },
                {
                  "name": "folder-AAAA",
                  "children": [
                    {
                      "name": "file-AAAA1",
                      "content": {
                        "text": "ANOTHER ONE -- Lorem ipsum dolor sit amet, consectetur adipiscing elit, sed do eiusmod tempor incididunt ut labore et dolore magna aliqua."
                      }
                    },
                    {
                      "name": "file-AAAA2",
                      "content": {
                        "text": "ANDDDDDDDDD ANOTHER ONE -- Lorem ipsum dolor sit amet, consectetur adipiscing elit, sed do eiusmod tempor incididunt ut labore et dolore magna aliqua."
                      }
                    }
                  ]
                }
              ]
            }
          ]
        }
      ]
    },
    {
      "name": "folder-B",
      "children": [
        {
          "name": "file-B1",
          "content": {
            "text": "Lorem ipsum dolor sit amet, consectetur adipiscing elit, sed do eiusmod tempor incididunt ut labore et dolore magna aliqua."
          }
        },
        {
          "name": "folder-BA",
          "children": [
            {
              "name": "file-BA1",
              "content": {
                "text": "FILE FOUR .... Lorem ipsum dolor sit amet, consectetur adipiscing elit, sed do eiusmod tempor incididunt ut labore et dolore magna aliqua."
              }
            },
            {
              "name": "file-BA2",
              "content": {
                "text": "FILE FIVE ----> Lorem ipsum dolor sit amet, consectetur adipiscing elit, sed do eiusmod tempor incididunt ut labore et dolore magna aliqua."
              }
            }
          ]
        },
        {
          "name": "folder-BB",
          "children": []
        },
        {
          "name": "folder-BC",
          "children": [
            {
              "name": "file-BC1",
              "content": {
                "text": "FILE SIX BC1 ---- Lorem ipsum dolor sit amet, consectetur adipiscing elit, sed do eiusmod tempor incididunt ut labore et dolore magna aliqua."
              }
            },
            {
              "name": "file-BC2",
              "content": {
                "text": "Some Text"
              }
            },
            {
              "name": "file-BC3",
              "content": {
                "text": "Some More Text"
              }
            },
            {
              "name": "file-BC4",
              "content": {
                "text": "Some Text... Again"
              }
            },
            {
              "name": "file-BC5",
              "content": {
                "text": "Some DIFFERENT Text"
              }
            }
          ]
        }
      ]
    }
  ]
}
